^J:\MY DOCUMENTS\PRZETWARZANIE OBRAZÓW\SRC\GUI\DIALOGS\BIN_NIBLACK_DIALOG.H
J:\MY DOCUMENTS\PRZETWARZANIE OBRAZÓW\DEBUG\MOC_BIN_NIBLACK_DIALOG.CPP
^J:\MY DOCUMENTS\PRZETWARZANIE OBRAZÓW\SRC\GUI\DIALOGS\CORNER_HARRIS_DIALOG.H
J:\MY DOCUMENTS\PRZETWARZANIE OBRAZÓW\DEBUG\MOC_CORNER_HARRIS_DIALOG.CPP
^J:\MY DOCUMENTS\PRZETWARZANIE OBRAZÓW\SRC\GUI\DIALOGS\CORRECTION_DIALOG.H
J:\MY DOCUMENTS\PRZETWARZANIE OBRAZÓW\DEBUG\MOC_CORRECTION_DIALOG.CPP
^J:\MY DOCUMENTS\PRZETWARZANIE OBRAZÓW\SRC\GUI\DIALOGS\EDGE_CANNY_DIALOG.H
J:\MY DOCUMENTS\PRZETWARZANIE OBRAZÓW\DEBUG\MOC_EDGE_CANNY_DIALOG.CPP
^J:\MY DOCUMENTS\PRZETWARZANIE OBRAZÓW\SRC\GUI\DIALOGS\EDGE_ZERO_DIALOG.H
J:\MY DOCUMENTS\PRZETWARZANIE OBRAZÓW\DEBUG\MOC_EDGE_ZERO_DIALOG.CPP
^J:\MY DOCUMENTS\PRZETWARZANIE OBRAZÓW\SRC\GUI\DIALOGS\GAUSSIAN_DIALOG.H
J:\MY DOCUMENTS\PRZETWARZANIE OBRAZÓW\DEBUG\MOC_GAUSSIAN_DIALOG.CPP
^J:\MY DOCUMENTS\PRZETWARZANIE OBRAZÓW\SRC\GUI\HISTOGRAMVIEWER.H
J:\MY DOCUMENTS\PRZETWARZANIE OBRAZÓW\DEBUG\MOC_HISTOGRAMVIEWER.CPP
^J:\MY DOCUMENTS\PRZETWARZANIE OBRAZÓW\SRC\GUI\DIALOGS\HOUGH_DIALOG.H
J:\MY DOCUMENTS\PRZETWARZANIE OBRAZÓW\DEBUG\MOC_HOUGH_DIALOG.CPP
^J:\MY DOCUMENTS\PRZETWARZANIE OBRAZÓW\SRC\GUI\DIALOGS\HOUGH_LINES_DIALOG.H
J:\MY DOCUMENTS\PRZETWARZANIE OBRAZÓW\DEBUG\MOC_HOUGH_LINES_DIALOG.CPP
^J:\MY DOCUMENTS\PRZETWARZANIE OBRAZÓW\SRC\GUI\IMAGEVIEWER.H
J:\MY DOCUMENTS\PRZETWARZANIE OBRAZÓW\DEBUG\MOC_IMAGEVIEWER.CPP
^J:\MY DOCUMENTS\PRZETWARZANIE OBRAZÓW\SRC\GUI\DIALOGS\LINEAR_DIALOG.H
J:\MY DOCUMENTS\PRZETWARZANIE OBRAZÓW\DEBUG\MOC_LINEAR_DIALOG.CPP
^J:\MY DOCUMENTS\PRZETWARZANIE OBRAZÓW\SRC\GUI\MAINWINDOW.H
J:\MY DOCUMENTS\PRZETWARZANIE OBRAZÓW\DEBUG\MOC_MAINWINDOW.CPP
^J:\MY DOCUMENTS\PRZETWARZANIE OBRAZÓW\SRC\GUI\DIALOGS\MAP_HORIZON_DIALOG.H
J:\MY DOCUMENTS\PRZETWARZANIE OBRAZÓW\DEBUG\MOC_MAP_HORIZON_DIALOG.CPP
^J:\MY DOCUMENTS\PRZETWARZANIE OBRAZÓW\SRC\GUI\DIALOGS\MAP_NORMAL_DIALOG.H
J:\MY DOCUMENTS\PRZETWARZANIE OBRAZÓW\DEBUG\MOC_MAP_NORMAL_DIALOG.CPP
^J:\MY DOCUMENTS\PRZETWARZANIE OBRAZÓW\SRC\GUI\DIALOGS\MASK_DIALOG.H
J:\MY DOCUMENTS\PRZETWARZANIE OBRAZÓW\DEBUG\MOC_MASK_DIALOG.CPP
^J:\MY DOCUMENTS\PRZETWARZANIE OBRAZÓW\SRC\GUI\DIALOGS\MORPH_DIALOG.H
J:\MY DOCUMENTS\PRZETWARZANIE OBRAZÓW\DEBUG\MOC_MORPH_DIALOG.CPP
^J:\MY DOCUMENTS\PRZETWARZANIE OBRAZÓW\SRC\GUI\DIALOGS\NOISE_BILATERAL_DIALOG.H
J:\MY DOCUMENTS\PRZETWARZANIE OBRAZÓW\DEBUG\MOC_NOISE_BILATERAL_DIALOG.CPP
^J:\MY DOCUMENTS\PRZETWARZANIE OBRAZÓW\SRC\GUI\DIALOGS\NOISE_MEDIAN_DIALOG.H
J:\MY DOCUMENTS\PRZETWARZANIE OBRAZÓW\DEBUG\MOC_NOISE_MEDIAN_DIALOG.CPP
^J:\MY DOCUMENTS\PRZETWARZANIE OBRAZÓW\SRC\GUI\DIALOGS\SLIDER_DIALOG.H
J:\MY DOCUMENTS\PRZETWARZANIE OBRAZÓW\DEBUG\MOC_SLIDER_DIALOG.CPP
^J:\MY DOCUMENTS\PRZETWARZANIE OBRAZÓW\SRC\CORE\TOOLS.H
J:\MY DOCUMENTS\PRZETWARZANIE OBRAZÓW\DEBUG\MOC_TOOLS.CPP
^J:\MY DOCUMENTS\PRZETWARZANIE OBRAZÓW\SRC\GUI\TOOLSMENU.H
J:\MY DOCUMENTS\PRZETWARZANIE OBRAZÓW\DEBUG\MOC_TOOLSMENU.CPP
^J:\MY DOCUMENTS\PRZETWARZANIE OBRAZÓW\SRC\CORE\TRANSFORMATIONS\TRANSFORMATION.H
J:\MY DOCUMENTS\PRZETWARZANIE OBRAZÓW\DEBUG\MOC_TRANSFORMATION.CPP
^J:\MY DOCUMENTS\PRZETWARZANIE OBRAZÓW\SRC\GUI\DIALOGS\BIN_NIBLACK_DIALOG.UI
J:\MY DOCUMENTS\PRZETWARZANIE OBRAZÓW\GENERATEDFILES\UI_BIN_NIBLACK_DIALOG.H
^J:\MY DOCUMENTS\PRZETWARZANIE OBRAZÓW\SRC\GUI\DIALOGS\CORNER_HARRIS_DIALOG.UI
J:\MY DOCUMENTS\PRZETWARZANIE OBRAZÓW\GENERATEDFILES\UI_CORNER_HARRIS_DIALOG.H
^J:\MY DOCUMENTS\PRZETWARZANIE OBRAZÓW\SRC\GUI\DIALOGS\CORRECTION_DIALOG.UI
J:\MY DOCUMENTS\PRZETWARZANIE OBRAZÓW\GENERATEDFILES\UI_CORRECTION_DIALOG.H
^J:\MY DOCUMENTS\PRZETWARZANIE OBRAZÓW\SRC\GUI\DIALOGS\EDGE_CANNY_DIALOG.UI
J:\MY DOCUMENTS\PRZETWARZANIE OBRAZÓW\GENERATEDFILES\UI_EDGE_CANNY_DIALOG.H
^J:\MY DOCUMENTS\PRZETWARZANIE OBRAZÓW\SRC\GUI\DIALOGS\EDGE_ZERO_DIALOG.UI
J:\MY DOCUMENTS\PRZETWARZANIE OBRAZÓW\GENERATEDFILES\UI_EDGE_ZERO_DIALOG.H
^J:\MY DOCUMENTS\PRZETWARZANIE OBRAZÓW\SRC\GUI\DIALOGS\GAUSSIAN_DIALOG.UI
J:\MY DOCUMENTS\PRZETWARZANIE OBRAZÓW\GENERATEDFILES\UI_GAUSSIAN_DIALOG.H
^J:\MY DOCUMENTS\PRZETWARZANIE OBRAZÓW\SRC\GUI\HISTOGRAMVIEWER.UI
J:\MY DOCUMENTS\PRZETWARZANIE OBRAZÓW\GENERATEDFILES\UI_HISTOGRAMVIEWER.H
^J:\MY DOCUMENTS\PRZETWARZANIE OBRAZÓW\SRC\GUI\DIALOGS\HOUGH_DIALOG.UI
J:\MY DOCUMENTS\PRZETWARZANIE OBRAZÓW\GENERATEDFILES\UI_HOUGH_DIALOG.H
^J:\MY DOCUMENTS\PRZETWARZANIE OBRAZÓW\SRC\GUI\DIALOGS\HOUGH_LINES_DIALOG.UI
J:\MY DOCUMENTS\PRZETWARZANIE OBRAZÓW\GENERATEDFILES\UI_HOUGH_LINES_DIALOG.H
^J:\MY DOCUMENTS\PRZETWARZANIE OBRAZÓW\SRC\GUI\IMAGEVIEWER.UI
J:\MY DOCUMENTS\PRZETWARZANIE OBRAZÓW\GENERATEDFILES\UI_IMAGEVIEWER.H
^J:\MY DOCUMENTS\PRZETWARZANIE OBRAZÓW\SRC\GUI\DIALOGS\LINEAR_DIALOG.UI
J:\MY DOCUMENTS\PRZETWARZANIE OBRAZÓW\GENERATEDFILES\UI_LINEAR_DIALOG.H
^J:\MY DOCUMENTS\PRZETWARZANIE OBRAZÓW\SRC\GUI\MAINWINDOW.UI
J:\MY DOCUMENTS\PRZETWARZANIE OBRAZÓW\GENERATEDFILES\UI_MAINWINDOW.H
^J:\MY DOCUMENTS\PRZETWARZANIE OBRAZÓW\SRC\GUI\DIALOGS\MAP_HORIZON_DIALOG.UI
J:\MY DOCUMENTS\PRZETWARZANIE OBRAZÓW\GENERATEDFILES\UI_MAP_HORIZON_DIALOG.H
^J:\MY DOCUMENTS\PRZETWARZANIE OBRAZÓW\SRC\GUI\DIALOGS\MAP_NORMAL_DIALOG.UI
J:\MY DOCUMENTS\PRZETWARZANIE OBRAZÓW\GENERATEDFILES\UI_MAP_NORMAL_DIALOG.H
^J:\MY DOCUMENTS\PRZETWARZANIE OBRAZÓW\SRC\GUI\DIALOGS\MASK_DIALOG.UI
J:\MY DOCUMENTS\PRZETWARZANIE OBRAZÓW\GENERATEDFILES\UI_MASK_DIALOG.H
^J:\MY DOCUMENTS\PRZETWARZANIE OBRAZÓW\SRC\GUI\DIALOGS\MORPH_DIALOG.UI
J:\MY DOCUMENTS\PRZETWARZANIE OBRAZÓW\GENERATEDFILES\UI_MORPH_DIALOG.H
^J:\MY DOCUMENTS\PRZETWARZANIE OBRAZÓW\SRC\GUI\DIALOGS\NOISE_BILATERAL_DIALOG.UI
J:\MY DOCUMENTS\PRZETWARZANIE OBRAZÓW\GENERATEDFILES\UI_NOISE_BILATERAL_DIALOG.H
^J:\MY DOCUMENTS\PRZETWARZANIE OBRAZÓW\SRC\GUI\DIALOGS\NOISE_MEDIAN_DIALOG.UI
J:\MY DOCUMENTS\PRZETWARZANIE OBRAZÓW\GENERATEDFILES\UI_NOISE_MEDIAN_DIALOG.H
^J:\MY DOCUMENTS\PRZETWARZANIE OBRAZÓW\SRC\GUI\DIALOGS\SLIDER_DIALOG.UI
J:\MY DOCUMENTS\PRZETWARZANIE OBRAZÓW\GENERATEDFILES\UI_SLIDER_DIALOG.H
^J:\MY DOCUMENTS\PRZETWARZANIE OBRAZÓW\SRC\GUI\TOOLSMENU.UI
J:\MY DOCUMENTS\PRZETWARZANIE OBRAZÓW\GENERATEDFILES\UI_TOOLSMENU.H
^J:\MY DOCUMENTS\PRZETWARZANIE OBRAZÓW\RES\ICONS.QRC
J:\MY DOCUMENTS\PRZETWARZANIE OBRAZÓW\GENERATEDFILES\QRC_ICONS.CPP
^J:\MY DOCUMENTS\OBRAZY\SRC\GUI\DIALOGS\BIN_NIBLACK_DIALOG.H
J:\MY DOCUMENTS\OBRAZY\DEBUG\MOC_BIN_NIBLACK_DIALOG.CPP
^J:\MY DOCUMENTS\OBRAZY\SRC\GUI\DIALOGS\CORNER_HARRIS_DIALOG.H
J:\MY DOCUMENTS\OBRAZY\DEBUG\MOC_CORNER_HARRIS_DIALOG.CPP
^J:\MY DOCUMENTS\OBRAZY\SRC\GUI\DIALOGS\CORRECTION_DIALOG.H
J:\MY DOCUMENTS\OBRAZY\DEBUG\MOC_CORRECTION_DIALOG.CPP
^J:\MY DOCUMENTS\OBRAZY\SRC\GUI\DIALOGS\EDGE_CANNY_DIALOG.H
J:\MY DOCUMENTS\OBRAZY\DEBUG\MOC_EDGE_CANNY_DIALOG.CPP
^J:\MY DOCUMENTS\OBRAZY\SRC\GUI\DIALOGS\EDGE_ZERO_DIALOG.H
J:\MY DOCUMENTS\OBRAZY\DEBUG\MOC_EDGE_ZERO_DIALOG.CPP
^J:\MY DOCUMENTS\OBRAZY\SRC\GUI\DIALOGS\GAUSSIAN_DIALOG.H
J:\MY DOCUMENTS\OBRAZY\DEBUG\MOC_GAUSSIAN_DIALOG.CPP
^J:\MY DOCUMENTS\OBRAZY\SRC\GUI\HISTOGRAMVIEWER.H
J:\MY DOCUMENTS\OBRAZY\DEBUG\MOC_HISTOGRAMVIEWER.CPP
^J:\MY DOCUMENTS\OBRAZY\SRC\GUI\DIALOGS\HOUGH_DIALOG.H
J:\MY DOCUMENTS\OBRAZY\DEBUG\MOC_HOUGH_DIALOG.CPP
^J:\MY DOCUMENTS\OBRAZY\SRC\GUI\DIALOGS\HOUGH_LINES_DIALOG.H
J:\MY DOCUMENTS\OBRAZY\DEBUG\MOC_HOUGH_LINES_DIALOG.CPP
^J:\MY DOCUMENTS\OBRAZY\SRC\GUI\IMAGEVIEWER.H
J:\MY DOCUMENTS\OBRAZY\DEBUG\MOC_IMAGEVIEWER.CPP
^J:\MY DOCUMENTS\OBRAZY\SRC\GUI\DIALOGS\LINEAR_DIALOG.H
J:\MY DOCUMENTS\OBRAZY\DEBUG\MOC_LINEAR_DIALOG.CPP
^J:\MY DOCUMENTS\OBRAZY\SRC\GUI\MAINWINDOW.H
J:\MY DOCUMENTS\OBRAZY\DEBUG\MOC_MAINWINDOW.CPP
^J:\MY DOCUMENTS\OBRAZY\SRC\GUI\DIALOGS\MAP_HORIZON_DIALOG.H
J:\MY DOCUMENTS\OBRAZY\DEBUG\MOC_MAP_HORIZON_DIALOG.CPP
^J:\MY DOCUMENTS\OBRAZY\SRC\GUI\DIALOGS\MAP_NORMAL_DIALOG.H
J:\MY DOCUMENTS\OBRAZY\DEBUG\MOC_MAP_NORMAL_DIALOG.CPP
^J:\MY DOCUMENTS\OBRAZY\SRC\GUI\DIALOGS\MASK_DIALOG.H
J:\MY DOCUMENTS\OBRAZY\DEBUG\MOC_MASK_DIALOG.CPP
^J:\MY DOCUMENTS\OBRAZY\SRC\GUI\DIALOGS\MORPH_DIALOG.H
J:\MY DOCUMENTS\OBRAZY\DEBUG\MOC_MORPH_DIALOG.CPP
^J:\MY DOCUMENTS\OBRAZY\SRC\GUI\DIALOGS\NOISE_BILATERAL_DIALOG.H
J:\MY DOCUMENTS\OBRAZY\DEBUG\MOC_NOISE_BILATERAL_DIALOG.CPP
^J:\MY DOCUMENTS\OBRAZY\SRC\GUI\DIALOGS\NOISE_MEDIAN_DIALOG.H
J:\MY DOCUMENTS\OBRAZY\DEBUG\MOC_NOISE_MEDIAN_DIALOG.CPP
^J:\MY DOCUMENTS\OBRAZY\SRC\GUI\DIALOGS\SLIDER_DIALOG.H
J:\MY DOCUMENTS\OBRAZY\DEBUG\MOC_SLIDER_DIALOG.CPP
^J:\MY DOCUMENTS\OBRAZY\SRC\CORE\TOOLS.H
J:\MY DOCUMENTS\OBRAZY\DEBUG\MOC_TOOLS.CPP
^J:\MY DOCUMENTS\OBRAZY\SRC\GUI\TOOLSMENU.H
J:\MY DOCUMENTS\OBRAZY\DEBUG\MOC_TOOLSMENU.CPP
^J:\MY DOCUMENTS\OBRAZY\SRC\CORE\TRANSFORMATIONS\TRANSFORMATION.H
J:\MY DOCUMENTS\OBRAZY\DEBUG\MOC_TRANSFORMATION.CPP
^J:\MY DOCUMENTS\OBRAZY\SRC\GUI\DIALOGS\BIN_NIBLACK_DIALOG.UI
J:\MY DOCUMENTS\OBRAZY\GENERATEDFILES\UI_BIN_NIBLACK_DIALOG.H
^J:\MY DOCUMENTS\OBRAZY\SRC\GUI\DIALOGS\CORNER_HARRIS_DIALOG.UI
J:\MY DOCUMENTS\OBRAZY\GENERATEDFILES\UI_CORNER_HARRIS_DIALOG.H
^J:\MY DOCUMENTS\OBRAZY\SRC\GUI\DIALOGS\CORRECTION_DIALOG.UI
J:\MY DOCUMENTS\OBRAZY\GENERATEDFILES\UI_CORRECTION_DIALOG.H
^J:\MY DOCUMENTS\OBRAZY\SRC\GUI\DIALOGS\EDGE_CANNY_DIALOG.UI
J:\MY DOCUMENTS\OBRAZY\GENERATEDFILES\UI_EDGE_CANNY_DIALOG.H
^J:\MY DOCUMENTS\OBRAZY\SRC\GUI\DIALOGS\EDGE_ZERO_DIALOG.UI
J:\MY DOCUMENTS\OBRAZY\GENERATEDFILES\UI_EDGE_ZERO_DIALOG.H
^J:\MY DOCUMENTS\OBRAZY\SRC\GUI\DIALOGS\GAUSSIAN_DIALOG.UI
J:\MY DOCUMENTS\OBRAZY\GENERATEDFILES\UI_GAUSSIAN_DIALOG.H
^J:\MY DOCUMENTS\OBRAZY\SRC\GUI\HISTOGRAMVIEWER.UI
J:\MY DOCUMENTS\OBRAZY\GENERATEDFILES\UI_HISTOGRAMVIEWER.H
^J:\MY DOCUMENTS\OBRAZY\SRC\GUI\DIALOGS\HOUGH_DIALOG.UI
J:\MY DOCUMENTS\OBRAZY\GENERATEDFILES\UI_HOUGH_DIALOG.H
^J:\MY DOCUMENTS\OBRAZY\SRC\GUI\DIALOGS\HOUGH_LINES_DIALOG.UI
J:\MY DOCUMENTS\OBRAZY\GENERATEDFILES\UI_HOUGH_LINES_DIALOG.H
^J:\MY DOCUMENTS\OBRAZY\SRC\GUI\IMAGEVIEWER.UI
J:\MY DOCUMENTS\OBRAZY\GENERATEDFILES\UI_IMAGEVIEWER.H
^J:\MY DOCUMENTS\OBRAZY\SRC\GUI\DIALOGS\LINEAR_DIALOG.UI
J:\MY DOCUMENTS\OBRAZY\GENERATEDFILES\UI_LINEAR_DIALOG.H
^J:\MY DOCUMENTS\OBRAZY\SRC\GUI\MAINWINDOW.UI
J:\MY DOCUMENTS\OBRAZY\GENERATEDFILES\UI_MAINWINDOW.H
^J:\MY DOCUMENTS\OBRAZY\SRC\GUI\DIALOGS\MAP_HORIZON_DIALOG.UI
J:\MY DOCUMENTS\OBRAZY\GENERATEDFILES\UI_MAP_HORIZON_DIALOG.H
^J:\MY DOCUMENTS\OBRAZY\SRC\GUI\DIALOGS\MAP_NORMAL_DIALOG.UI
J:\MY DOCUMENTS\OBRAZY\GENERATEDFILES\UI_MAP_NORMAL_DIALOG.H
^J:\MY DOCUMENTS\OBRAZY\SRC\GUI\DIALOGS\MASK_DIALOG.UI
J:\MY DOCUMENTS\OBRAZY\GENERATEDFILES\UI_MASK_DIALOG.H
^J:\MY DOCUMENTS\OBRAZY\SRC\GUI\DIALOGS\MORPH_DIALOG.UI
J:\MY DOCUMENTS\OBRAZY\GENERATEDFILES\UI_MORPH_DIALOG.H
^J:\MY DOCUMENTS\OBRAZY\SRC\GUI\DIALOGS\NOISE_BILATERAL_DIALOG.UI
J:\MY DOCUMENTS\OBRAZY\GENERATEDFILES\UI_NOISE_BILATERAL_DIALOG.H
^J:\MY DOCUMENTS\OBRAZY\SRC\GUI\DIALOGS\NOISE_MEDIAN_DIALOG.UI
J:\MY DOCUMENTS\OBRAZY\GENERATEDFILES\UI_NOISE_MEDIAN_DIALOG.H
^J:\MY DOCUMENTS\OBRAZY\SRC\GUI\DIALOGS\SLIDER_DIALOG.UI
J:\MY DOCUMENTS\OBRAZY\GENERATEDFILES\UI_SLIDER_DIALOG.H
^J:\MY DOCUMENTS\OBRAZY\SRC\GUI\TOOLSMENU.UI
J:\MY DOCUMENTS\OBRAZY\GENERATEDFILES\UI_TOOLSMENU.H
^J:\MY DOCUMENTS\OBRAZY\RES\ICONS.QRC
J:\MY DOCUMENTS\OBRAZY\GENERATEDFILES\QRC_ICONS.CPP
