^J:\MY DOCUMENTS\PRZETWARZANIE OBRAZÓW\SRC\GUI\DIALOGS\BIN_NIBLACK_DIALOG.H
"C:\software\qt\5.3\msvc2013\bin\moc.exe"  "J:\My Documents\Przetwarzanie obrazów\src\gui\dialogs\bin_niblack_dialog.h" -o "Debug\moc_bin_niblack_dialog.cpp"  -D_WINDOWS -DUNICODE -DWIN32 -DQT_WIDGETS_LIB -DQT_GUI_LIB -DQT_CORE_LIB -DQT_OPENGL_ES_2 -DQT_OPENGL_ES_2_ANGLE  "-I.\src" "-I.\src\core" "-I.\src\gui" "-IC:\software\qt\5.3\msvc2013\include" "-IC:\software\qt\5.3\msvc2013\include\QtWidgets" "-IC:\software\qt\5.3\msvc2013\include\QtGui" "-IC:\software\qt\5.3\msvc2013\include\QtANGLE" "-IC:\software\qt\5.3\msvc2013\include\QtCore" "-I.\debug" "-I." "-IC:\software\qt\5.3\msvc2013\mkspecs\win32-msvc2013" "-I.\GeneratedFiles" "-I\." "-IC:\software\qt\5.3\msvc2013\include\QtGui\5.3.1"
^J:\MY DOCUMENTS\PRZETWARZANIE OBRAZÓW\SRC\GUI\DIALOGS\CORNER_HARRIS_DIALOG.H
"C:\software\qt\5.3\msvc2013\bin\moc.exe"  "J:\My Documents\Przetwarzanie obrazów\src\gui\dialogs\corner_harris_dialog.h" -o "Debug\moc_corner_harris_dialog.cpp"  -D_WINDOWS -DUNICODE -DWIN32 -DQT_WIDGETS_LIB -DQT_GUI_LIB -DQT_CORE_LIB -DQT_OPENGL_ES_2 -DQT_OPENGL_ES_2_ANGLE  "-I.\src" "-I.\src\core" "-I.\src\gui" "-IC:\software\qt\5.3\msvc2013\include" "-IC:\software\qt\5.3\msvc2013\include\QtWidgets" "-IC:\software\qt\5.3\msvc2013\include\QtGui" "-IC:\software\qt\5.3\msvc2013\include\QtANGLE" "-IC:\software\qt\5.3\msvc2013\include\QtCore" "-I.\debug" "-I." "-IC:\software\qt\5.3\msvc2013\mkspecs\win32-msvc2013" "-I.\GeneratedFiles" "-I\." "-IC:\software\qt\5.3\msvc2013\include\QtGui\5.3.1"
^J:\MY DOCUMENTS\PRZETWARZANIE OBRAZÓW\SRC\GUI\DIALOGS\CORRECTION_DIALOG.H
"C:\software\qt\5.3\msvc2013\bin\moc.exe"  "J:\My Documents\Przetwarzanie obrazów\src\gui\dialogs\correction_dialog.h" -o "Debug\moc_correction_dialog.cpp"  -D_WINDOWS -DUNICODE -DWIN32 -DQT_WIDGETS_LIB -DQT_GUI_LIB -DQT_CORE_LIB -DQT_OPENGL_ES_2 -DQT_OPENGL_ES_2_ANGLE  "-I.\src" "-I.\src\core" "-I.\src\gui" "-IC:\software\qt\5.3\msvc2013\include" "-IC:\software\qt\5.3\msvc2013\include\QtWidgets" "-IC:\software\qt\5.3\msvc2013\include\QtGui" "-IC:\software\qt\5.3\msvc2013\include\QtANGLE" "-IC:\software\qt\5.3\msvc2013\include\QtCore" "-I.\debug" "-I." "-IC:\software\qt\5.3\msvc2013\mkspecs\win32-msvc2013" "-I.\GeneratedFiles" "-I\." "-IC:\software\qt\5.3\msvc2013\include\QtGui\5.3.1"
^J:\MY DOCUMENTS\PRZETWARZANIE OBRAZÓW\SRC\GUI\DIALOGS\EDGE_CANNY_DIALOG.H
"C:\software\qt\5.3\msvc2013\bin\moc.exe"  "J:\My Documents\Przetwarzanie obrazów\src\gui\dialogs\edge_canny_dialog.h" -o "Debug\moc_edge_canny_dialog.cpp"  -D_WINDOWS -DUNICODE -DWIN32 -DQT_WIDGETS_LIB -DQT_GUI_LIB -DQT_CORE_LIB -DQT_OPENGL_ES_2 -DQT_OPENGL_ES_2_ANGLE  "-I.\src" "-I.\src\core" "-I.\src\gui" "-IC:\software\qt\5.3\msvc2013\include" "-IC:\software\qt\5.3\msvc2013\include\QtWidgets" "-IC:\software\qt\5.3\msvc2013\include\QtGui" "-IC:\software\qt\5.3\msvc2013\include\QtANGLE" "-IC:\software\qt\5.3\msvc2013\include\QtCore" "-I.\debug" "-I." "-IC:\software\qt\5.3\msvc2013\mkspecs\win32-msvc2013" "-I.\GeneratedFiles" "-I\." "-IC:\software\qt\5.3\msvc2013\include\QtGui\5.3.1"
^J:\MY DOCUMENTS\PRZETWARZANIE OBRAZÓW\SRC\GUI\DIALOGS\EDGE_ZERO_DIALOG.H
"C:\software\qt\5.3\msvc2013\bin\moc.exe"  "J:\My Documents\Przetwarzanie obrazów\src\gui\dialogs\edge_zero_dialog.h" -o "Debug\moc_edge_zero_dialog.cpp"  -D_WINDOWS -DUNICODE -DWIN32 -DQT_WIDGETS_LIB -DQT_GUI_LIB -DQT_CORE_LIB -DQT_OPENGL_ES_2 -DQT_OPENGL_ES_2_ANGLE  "-I.\src" "-I.\src\core" "-I.\src\gui" "-IC:\software\qt\5.3\msvc2013\include" "-IC:\software\qt\5.3\msvc2013\include\QtWidgets" "-IC:\software\qt\5.3\msvc2013\include\QtGui" "-IC:\software\qt\5.3\msvc2013\include\QtANGLE" "-IC:\software\qt\5.3\msvc2013\include\QtCore" "-I.\debug" "-I." "-IC:\software\qt\5.3\msvc2013\mkspecs\win32-msvc2013" "-I.\GeneratedFiles" "-I\." "-IC:\software\qt\5.3\msvc2013\include\QtGui\5.3.1"
^J:\MY DOCUMENTS\PRZETWARZANIE OBRAZÓW\SRC\GUI\DIALOGS\GAUSSIAN_DIALOG.H
"C:\software\qt\5.3\msvc2013\bin\moc.exe"  "J:\My Documents\Przetwarzanie obrazów\src\gui\dialogs\gaussian_dialog.h" -o "Debug\moc_gaussian_dialog.cpp"  -D_WINDOWS -DUNICODE -DWIN32 -DQT_WIDGETS_LIB -DQT_GUI_LIB -DQT_CORE_LIB -DQT_OPENGL_ES_2 -DQT_OPENGL_ES_2_ANGLE  "-I.\src" "-I.\src\core" "-I.\src\gui" "-IC:\software\qt\5.3\msvc2013\include" "-IC:\software\qt\5.3\msvc2013\include\QtWidgets" "-IC:\software\qt\5.3\msvc2013\include\QtGui" "-IC:\software\qt\5.3\msvc2013\include\QtANGLE" "-IC:\software\qt\5.3\msvc2013\include\QtCore" "-I.\debug" "-I." "-IC:\software\qt\5.3\msvc2013\mkspecs\win32-msvc2013" "-I.\GeneratedFiles" "-I\." "-IC:\software\qt\5.3\msvc2013\include\QtGui\5.3.1"
^J:\MY DOCUMENTS\PRZETWARZANIE OBRAZÓW\SRC\GUI\HISTOGRAMVIEWER.H
"C:\software\qt\5.3\msvc2013\bin\moc.exe"  "J:\My Documents\Przetwarzanie obrazów\src\gui\histogramviewer.h" -o "Debug\moc_histogramviewer.cpp"  -D_WINDOWS -DUNICODE -DWIN32 -DQT_WIDGETS_LIB -DQT_GUI_LIB -DQT_CORE_LIB -DQT_OPENGL_ES_2 -DQT_OPENGL_ES_2_ANGLE  "-I.\src" "-I.\src\core" "-I.\src\gui" "-IC:\software\qt\5.3\msvc2013\include" "-IC:\software\qt\5.3\msvc2013\include\QtWidgets" "-IC:\software\qt\5.3\msvc2013\include\QtGui" "-IC:\software\qt\5.3\msvc2013\include\QtANGLE" "-IC:\software\qt\5.3\msvc2013\include\QtCore" "-I.\debug" "-I." "-IC:\software\qt\5.3\msvc2013\mkspecs\win32-msvc2013" "-I.\GeneratedFiles" "-I\." "-IC:\software\qt\5.3\msvc2013\include\QtGui\5.3.1"
^J:\MY DOCUMENTS\PRZETWARZANIE OBRAZÓW\SRC\GUI\DIALOGS\HOUGH_DIALOG.H
"C:\software\qt\5.3\msvc2013\bin\moc.exe"  "J:\My Documents\Przetwarzanie obrazów\src\gui\dialogs\hough_dialog.h" -o "Debug\moc_hough_dialog.cpp"  -D_WINDOWS -DUNICODE -DWIN32 -DQT_WIDGETS_LIB -DQT_GUI_LIB -DQT_CORE_LIB -DQT_OPENGL_ES_2 -DQT_OPENGL_ES_2_ANGLE  "-I.\src" "-I.\src\core" "-I.\src\gui" "-IC:\software\qt\5.3\msvc2013\include" "-IC:\software\qt\5.3\msvc2013\include\QtWidgets" "-IC:\software\qt\5.3\msvc2013\include\QtGui" "-IC:\software\qt\5.3\msvc2013\include\QtANGLE" "-IC:\software\qt\5.3\msvc2013\include\QtCore" "-I.\debug" "-I." "-IC:\software\qt\5.3\msvc2013\mkspecs\win32-msvc2013" "-I.\GeneratedFiles" "-I\." "-IC:\software\qt\5.3\msvc2013\include\QtGui\5.3.1"
^J:\MY DOCUMENTS\PRZETWARZANIE OBRAZÓW\SRC\GUI\DIALOGS\HOUGH_LINES_DIALOG.H
"C:\software\qt\5.3\msvc2013\bin\moc.exe"  "J:\My Documents\Przetwarzanie obrazów\src\gui\dialogs\hough_lines_dialog.h" -o "Debug\moc_hough_lines_dialog.cpp"  -D_WINDOWS -DUNICODE -DWIN32 -DQT_WIDGETS_LIB -DQT_GUI_LIB -DQT_CORE_LIB -DQT_OPENGL_ES_2 -DQT_OPENGL_ES_2_ANGLE  "-I.\src" "-I.\src\core" "-I.\src\gui" "-IC:\software\qt\5.3\msvc2013\include" "-IC:\software\qt\5.3\msvc2013\include\QtWidgets" "-IC:\software\qt\5.3\msvc2013\include\QtGui" "-IC:\software\qt\5.3\msvc2013\include\QtANGLE" "-IC:\software\qt\5.3\msvc2013\include\QtCore" "-I.\debug" "-I." "-IC:\software\qt\5.3\msvc2013\mkspecs\win32-msvc2013" "-I.\GeneratedFiles" "-I\." "-IC:\software\qt\5.3\msvc2013\include\QtGui\5.3.1"
^J:\MY DOCUMENTS\PRZETWARZANIE OBRAZÓW\SRC\GUI\IMAGEVIEWER.H
"C:\software\qt\5.3\msvc2013\bin\moc.exe"  "J:\My Documents\Przetwarzanie obrazów\src\gui\imageviewer.h" -o "Debug\moc_imageviewer.cpp"  -D_WINDOWS -DUNICODE -DWIN32 -DQT_WIDGETS_LIB -DQT_GUI_LIB -DQT_CORE_LIB -DQT_OPENGL_ES_2 -DQT_OPENGL_ES_2_ANGLE  "-I.\src" "-I.\src\core" "-I.\src\gui" "-IC:\software\qt\5.3\msvc2013\include" "-IC:\software\qt\5.3\msvc2013\include\QtWidgets" "-IC:\software\qt\5.3\msvc2013\include\QtGui" "-IC:\software\qt\5.3\msvc2013\include\QtANGLE" "-IC:\software\qt\5.3\msvc2013\include\QtCore" "-I.\debug" "-I." "-IC:\software\qt\5.3\msvc2013\mkspecs\win32-msvc2013" "-I.\GeneratedFiles" "-I\." "-IC:\software\qt\5.3\msvc2013\include\QtGui\5.3.1"
^J:\MY DOCUMENTS\PRZETWARZANIE OBRAZÓW\SRC\GUI\DIALOGS\LINEAR_DIALOG.H
"C:\software\qt\5.3\msvc2013\bin\moc.exe"  "J:\My Documents\Przetwarzanie obrazów\src\gui\dialogs\linear_dialog.h" -o "Debug\moc_linear_dialog.cpp"  -D_WINDOWS -DUNICODE -DWIN32 -DQT_WIDGETS_LIB -DQT_GUI_LIB -DQT_CORE_LIB -DQT_OPENGL_ES_2 -DQT_OPENGL_ES_2_ANGLE  "-I.\src" "-I.\src\core" "-I.\src\gui" "-IC:\software\qt\5.3\msvc2013\include" "-IC:\software\qt\5.3\msvc2013\include\QtWidgets" "-IC:\software\qt\5.3\msvc2013\include\QtGui" "-IC:\software\qt\5.3\msvc2013\include\QtANGLE" "-IC:\software\qt\5.3\msvc2013\include\QtCore" "-I.\debug" "-I." "-IC:\software\qt\5.3\msvc2013\mkspecs\win32-msvc2013" "-I.\GeneratedFiles" "-I\." "-IC:\software\qt\5.3\msvc2013\include\QtGui\5.3.1"
^J:\MY DOCUMENTS\PRZETWARZANIE OBRAZÓW\SRC\GUI\MAINWINDOW.H
"C:\software\qt\5.3\msvc2013\bin\moc.exe"  "J:\My Documents\Przetwarzanie obrazów\src\gui\mainwindow.h" -o "Debug\moc_mainwindow.cpp"  -D_WINDOWS -DUNICODE -DWIN32 -DQT_WIDGETS_LIB -DQT_GUI_LIB -DQT_CORE_LIB -DQT_OPENGL_ES_2 -DQT_OPENGL_ES_2_ANGLE  "-I.\src" "-I.\src\core" "-I.\src\gui" "-IC:\software\qt\5.3\msvc2013\include" "-IC:\software\qt\5.3\msvc2013\include\QtWidgets" "-IC:\software\qt\5.3\msvc2013\include\QtGui" "-IC:\software\qt\5.3\msvc2013\include\QtANGLE" "-IC:\software\qt\5.3\msvc2013\include\QtCore" "-I.\debug" "-I." "-IC:\software\qt\5.3\msvc2013\mkspecs\win32-msvc2013" "-I.\GeneratedFiles" "-I\." "-IC:\software\qt\5.3\msvc2013\include\QtGui\5.3.1"
^J:\MY DOCUMENTS\PRZETWARZANIE OBRAZÓW\SRC\GUI\DIALOGS\MAP_HORIZON_DIALOG.H
"C:\software\qt\5.3\msvc2013\bin\moc.exe"  "J:\My Documents\Przetwarzanie obrazów\src\gui\dialogs\map_horizon_dialog.h" -o "Debug\moc_map_horizon_dialog.cpp"  -D_WINDOWS -DUNICODE -DWIN32 -DQT_WIDGETS_LIB -DQT_GUI_LIB -DQT_CORE_LIB -DQT_OPENGL_ES_2 -DQT_OPENGL_ES_2_ANGLE  "-I.\src" "-I.\src\core" "-I.\src\gui" "-IC:\software\qt\5.3\msvc2013\include" "-IC:\software\qt\5.3\msvc2013\include\QtWidgets" "-IC:\software\qt\5.3\msvc2013\include\QtGui" "-IC:\software\qt\5.3\msvc2013\include\QtANGLE" "-IC:\software\qt\5.3\msvc2013\include\QtCore" "-I.\debug" "-I." "-IC:\software\qt\5.3\msvc2013\mkspecs\win32-msvc2013" "-I.\GeneratedFiles" "-I\." "-IC:\software\qt\5.3\msvc2013\include\QtGui\5.3.1"
^J:\MY DOCUMENTS\PRZETWARZANIE OBRAZÓW\SRC\GUI\DIALOGS\MAP_NORMAL_DIALOG.H
"C:\software\qt\5.3\msvc2013\bin\moc.exe"  "J:\My Documents\Przetwarzanie obrazów\src\gui\dialogs\map_normal_dialog.h" -o "Debug\moc_map_normal_dialog.cpp"  -D_WINDOWS -DUNICODE -DWIN32 -DQT_WIDGETS_LIB -DQT_GUI_LIB -DQT_CORE_LIB -DQT_OPENGL_ES_2 -DQT_OPENGL_ES_2_ANGLE  "-I.\src" "-I.\src\core" "-I.\src\gui" "-IC:\software\qt\5.3\msvc2013\include" "-IC:\software\qt\5.3\msvc2013\include\QtWidgets" "-IC:\software\qt\5.3\msvc2013\include\QtGui" "-IC:\software\qt\5.3\msvc2013\include\QtANGLE" "-IC:\software\qt\5.3\msvc2013\include\QtCore" "-I.\debug" "-I." "-IC:\software\qt\5.3\msvc2013\mkspecs\win32-msvc2013" "-I.\GeneratedFiles" "-I\." "-IC:\software\qt\5.3\msvc2013\include\QtGui\5.3.1"
^J:\MY DOCUMENTS\PRZETWARZANIE OBRAZÓW\SRC\GUI\DIALOGS\MASK_DIALOG.H
"C:\software\qt\5.3\msvc2013\bin\moc.exe"  "J:\My Documents\Przetwarzanie obrazów\src\gui\dialogs\mask_dialog.h" -o "Debug\moc_mask_dialog.cpp"  -D_WINDOWS -DUNICODE -DWIN32 -DQT_WIDGETS_LIB -DQT_GUI_LIB -DQT_CORE_LIB -DQT_OPENGL_ES_2 -DQT_OPENGL_ES_2_ANGLE  "-I.\src" "-I.\src\core" "-I.\src\gui" "-IC:\software\qt\5.3\msvc2013\include" "-IC:\software\qt\5.3\msvc2013\include\QtWidgets" "-IC:\software\qt\5.3\msvc2013\include\QtGui" "-IC:\software\qt\5.3\msvc2013\include\QtANGLE" "-IC:\software\qt\5.3\msvc2013\include\QtCore" "-I.\debug" "-I." "-IC:\software\qt\5.3\msvc2013\mkspecs\win32-msvc2013" "-I.\GeneratedFiles" "-I\." "-IC:\software\qt\5.3\msvc2013\include\QtGui\5.3.1"
^J:\MY DOCUMENTS\PRZETWARZANIE OBRAZÓW\SRC\GUI\DIALOGS\MORPH_DIALOG.H
"C:\software\qt\5.3\msvc2013\bin\moc.exe"  "J:\My Documents\Przetwarzanie obrazów\src\gui\dialogs\morph_dialog.h" -o "Debug\moc_morph_dialog.cpp"  -D_WINDOWS -DUNICODE -DWIN32 -DQT_WIDGETS_LIB -DQT_GUI_LIB -DQT_CORE_LIB -DQT_OPENGL_ES_2 -DQT_OPENGL_ES_2_ANGLE  "-I.\src" "-I.\src\core" "-I.\src\gui" "-IC:\software\qt\5.3\msvc2013\include" "-IC:\software\qt\5.3\msvc2013\include\QtWidgets" "-IC:\software\qt\5.3\msvc2013\include\QtGui" "-IC:\software\qt\5.3\msvc2013\include\QtANGLE" "-IC:\software\qt\5.3\msvc2013\include\QtCore" "-I.\debug" "-I." "-IC:\software\qt\5.3\msvc2013\mkspecs\win32-msvc2013" "-I.\GeneratedFiles" "-I\." "-IC:\software\qt\5.3\msvc2013\include\QtGui\5.3.1"
^J:\MY DOCUMENTS\PRZETWARZANIE OBRAZÓW\SRC\GUI\DIALOGS\NOISE_BILATERAL_DIALOG.H
"C:\software\qt\5.3\msvc2013\bin\moc.exe"  "J:\My Documents\Przetwarzanie obrazów\src\gui\dialogs\noise_bilateral_dialog.h" -o "Debug\moc_noise_bilateral_dialog.cpp"  -D_WINDOWS -DUNICODE -DWIN32 -DQT_WIDGETS_LIB -DQT_GUI_LIB -DQT_CORE_LIB -DQT_OPENGL_ES_2 -DQT_OPENGL_ES_2_ANGLE  "-I.\src" "-I.\src\core" "-I.\src\gui" "-IC:\software\qt\5.3\msvc2013\include" "-IC:\software\qt\5.3\msvc2013\include\QtWidgets" "-IC:\software\qt\5.3\msvc2013\include\QtGui" "-IC:\software\qt\5.3\msvc2013\include\QtANGLE" "-IC:\software\qt\5.3\msvc2013\include\QtCore" "-I.\debug" "-I." "-IC:\software\qt\5.3\msvc2013\mkspecs\win32-msvc2013" "-I.\GeneratedFiles" "-I\." "-IC:\software\qt\5.3\msvc2013\include\QtGui\5.3.1"
^J:\MY DOCUMENTS\PRZETWARZANIE OBRAZÓW\SRC\GUI\DIALOGS\NOISE_MEDIAN_DIALOG.H
"C:\software\qt\5.3\msvc2013\bin\moc.exe"  "J:\My Documents\Przetwarzanie obrazów\src\gui\dialogs\noise_median_dialog.h" -o "Debug\moc_noise_median_dialog.cpp"  -D_WINDOWS -DUNICODE -DWIN32 -DQT_WIDGETS_LIB -DQT_GUI_LIB -DQT_CORE_LIB -DQT_OPENGL_ES_2 -DQT_OPENGL_ES_2_ANGLE  "-I.\src" "-I.\src\core" "-I.\src\gui" "-IC:\software\qt\5.3\msvc2013\include" "-IC:\software\qt\5.3\msvc2013\include\QtWidgets" "-IC:\software\qt\5.3\msvc2013\include\QtGui" "-IC:\software\qt\5.3\msvc2013\include\QtANGLE" "-IC:\software\qt\5.3\msvc2013\include\QtCore" "-I.\debug" "-I." "-IC:\software\qt\5.3\msvc2013\mkspecs\win32-msvc2013" "-I.\GeneratedFiles" "-I\." "-IC:\software\qt\5.3\msvc2013\include\QtGui\5.3.1"
^J:\MY DOCUMENTS\PRZETWARZANIE OBRAZÓW\SRC\GUI\DIALOGS\SLIDER_DIALOG.H
"C:\software\qt\5.3\msvc2013\bin\moc.exe"  "J:\My Documents\Przetwarzanie obrazów\src\gui\dialogs\slider_dialog.h" -o "Debug\moc_slider_dialog.cpp"  -D_WINDOWS -DUNICODE -DWIN32 -DQT_WIDGETS_LIB -DQT_GUI_LIB -DQT_CORE_LIB -DQT_OPENGL_ES_2 -DQT_OPENGL_ES_2_ANGLE  "-I.\src" "-I.\src\core" "-I.\src\gui" "-IC:\software\qt\5.3\msvc2013\include" "-IC:\software\qt\5.3\msvc2013\include\QtWidgets" "-IC:\software\qt\5.3\msvc2013\include\QtGui" "-IC:\software\qt\5.3\msvc2013\include\QtANGLE" "-IC:\software\qt\5.3\msvc2013\include\QtCore" "-I.\debug" "-I." "-IC:\software\qt\5.3\msvc2013\mkspecs\win32-msvc2013" "-I.\GeneratedFiles" "-I\." "-IC:\software\qt\5.3\msvc2013\include\QtGui\5.3.1"
^J:\MY DOCUMENTS\PRZETWARZANIE OBRAZÓW\SRC\CORE\TOOLS.H
"C:\software\qt\5.3\msvc2013\bin\moc.exe"  "J:\My Documents\Przetwarzanie obrazów\src\core\tools.h" -o "Debug\moc_tools.cpp"  -D_WINDOWS -DUNICODE -DWIN32 -DQT_WIDGETS_LIB -DQT_GUI_LIB -DQT_CORE_LIB -DQT_OPENGL_ES_2 -DQT_OPENGL_ES_2_ANGLE  "-I.\src" "-I.\src\core" "-I.\src\gui" "-IC:\software\qt\5.3\msvc2013\include" "-IC:\software\qt\5.3\msvc2013\include\QtWidgets" "-IC:\software\qt\5.3\msvc2013\include\QtGui" "-IC:\software\qt\5.3\msvc2013\include\QtANGLE" "-IC:\software\qt\5.3\msvc2013\include\QtCore" "-I.\debug" "-I." "-IC:\software\qt\5.3\msvc2013\mkspecs\win32-msvc2013" "-I.\GeneratedFiles" "-I\." "-IC:\software\qt\5.3\msvc2013\include\QtGui\5.3.1"
^J:\MY DOCUMENTS\PRZETWARZANIE OBRAZÓW\SRC\GUI\TOOLSMENU.H
"C:\software\qt\5.3\msvc2013\bin\moc.exe"  "J:\My Documents\Przetwarzanie obrazów\src\gui\toolsmenu.h" -o "Debug\moc_toolsmenu.cpp"  -D_WINDOWS -DUNICODE -DWIN32 -DQT_WIDGETS_LIB -DQT_GUI_LIB -DQT_CORE_LIB -DQT_OPENGL_ES_2 -DQT_OPENGL_ES_2_ANGLE  "-I.\src" "-I.\src\core" "-I.\src\gui" "-IC:\software\qt\5.3\msvc2013\include" "-IC:\software\qt\5.3\msvc2013\include\QtWidgets" "-IC:\software\qt\5.3\msvc2013\include\QtGui" "-IC:\software\qt\5.3\msvc2013\include\QtANGLE" "-IC:\software\qt\5.3\msvc2013\include\QtCore" "-I.\debug" "-I." "-IC:\software\qt\5.3\msvc2013\mkspecs\win32-msvc2013" "-I.\GeneratedFiles" "-I\." "-IC:\software\qt\5.3\msvc2013\include\QtGui\5.3.1"
^J:\MY DOCUMENTS\PRZETWARZANIE OBRAZÓW\SRC\CORE\TRANSFORMATIONS\TRANSFORMATION.H
"C:\software\qt\5.3\msvc2013\bin\moc.exe"  "J:\My Documents\Przetwarzanie obrazów\src\core\transformations\transformation.h" -o "Debug\moc_transformation.cpp"  -D_WINDOWS -DUNICODE -DWIN32 -DQT_WIDGETS_LIB -DQT_GUI_LIB -DQT_CORE_LIB -DQT_OPENGL_ES_2 -DQT_OPENGL_ES_2_ANGLE  "-I.\src" "-I.\src\core" "-I.\src\gui" "-IC:\software\qt\5.3\msvc2013\include" "-IC:\software\qt\5.3\msvc2013\include\QtWidgets" "-IC:\software\qt\5.3\msvc2013\include\QtGui" "-IC:\software\qt\5.3\msvc2013\include\QtANGLE" "-IC:\software\qt\5.3\msvc2013\include\QtCore" "-I.\debug" "-I." "-IC:\software\qt\5.3\msvc2013\mkspecs\win32-msvc2013" "-I.\GeneratedFiles" "-I\." "-IC:\software\qt\5.3\msvc2013\include\QtGui\5.3.1"
^J:\MY DOCUMENTS\PRZETWARZANIE OBRAZÓW\SRC\GUI\DIALOGS\BIN_NIBLACK_DIALOG.UI
"C:\software\qt\5.3\msvc2013\bin\uic.exe" -o ".\GeneratedFiles\ui_bin_niblack_dialog.h" "J:\My Documents\Przetwarzanie obrazów\src\gui\dialogs\bin_niblack_dialog.ui"
^J:\MY DOCUMENTS\PRZETWARZANIE OBRAZÓW\SRC\GUI\DIALOGS\CORNER_HARRIS_DIALOG.UI
"C:\software\qt\5.3\msvc2013\bin\uic.exe" -o ".\GeneratedFiles\ui_corner_harris_dialog.h" "J:\My Documents\Przetwarzanie obrazów\src\gui\dialogs\corner_harris_dialog.ui"
^J:\MY DOCUMENTS\PRZETWARZANIE OBRAZÓW\SRC\GUI\DIALOGS\CORRECTION_DIALOG.UI
"C:\software\qt\5.3\msvc2013\bin\uic.exe" -o ".\GeneratedFiles\ui_correction_dialog.h" "J:\My Documents\Przetwarzanie obrazów\src\gui\dialogs\correction_dialog.ui"
^J:\MY DOCUMENTS\PRZETWARZANIE OBRAZÓW\SRC\GUI\DIALOGS\EDGE_CANNY_DIALOG.UI
"C:\software\qt\5.3\msvc2013\bin\uic.exe" -o ".\GeneratedFiles\ui_edge_canny_dialog.h" "J:\My Documents\Przetwarzanie obrazów\src\gui\dialogs\edge_canny_dialog.ui"
^J:\MY DOCUMENTS\PRZETWARZANIE OBRAZÓW\SRC\GUI\DIALOGS\EDGE_ZERO_DIALOG.UI
"C:\software\qt\5.3\msvc2013\bin\uic.exe" -o ".\GeneratedFiles\ui_edge_zero_dialog.h" "J:\My Documents\Przetwarzanie obrazów\src\gui\dialogs\edge_zero_dialog.ui"
^J:\MY DOCUMENTS\PRZETWARZANIE OBRAZÓW\SRC\GUI\DIALOGS\GAUSSIAN_DIALOG.UI
"C:\software\qt\5.3\msvc2013\bin\uic.exe" -o ".\GeneratedFiles\ui_gaussian_dialog.h" "J:\My Documents\Przetwarzanie obrazów\src\gui\dialogs\gaussian_dialog.ui"
^J:\MY DOCUMENTS\PRZETWARZANIE OBRAZÓW\SRC\GUI\HISTOGRAMVIEWER.UI
"C:\software\qt\5.3\msvc2013\bin\uic.exe" -o ".\GeneratedFiles\ui_histogramviewer.h" "J:\My Documents\Przetwarzanie obrazów\src\gui\histogramviewer.ui"
^J:\MY DOCUMENTS\PRZETWARZANIE OBRAZÓW\SRC\GUI\DIALOGS\HOUGH_DIALOG.UI
"C:\software\qt\5.3\msvc2013\bin\uic.exe" -o ".\GeneratedFiles\ui_hough_dialog.h" "J:\My Documents\Przetwarzanie obrazów\src\gui\dialogs\hough_dialog.ui"
^J:\MY DOCUMENTS\PRZETWARZANIE OBRAZÓW\SRC\GUI\DIALOGS\HOUGH_LINES_DIALOG.UI
"C:\software\qt\5.3\msvc2013\bin\uic.exe" -o ".\GeneratedFiles\ui_hough_lines_dialog.h" "J:\My Documents\Przetwarzanie obrazów\src\gui\dialogs\hough_lines_dialog.ui"
^J:\MY DOCUMENTS\PRZETWARZANIE OBRAZÓW\SRC\GUI\IMAGEVIEWER.UI
"C:\software\qt\5.3\msvc2013\bin\uic.exe" -o ".\GeneratedFiles\ui_imageviewer.h" "J:\My Documents\Przetwarzanie obrazów\src\gui\imageviewer.ui"
^J:\MY DOCUMENTS\PRZETWARZANIE OBRAZÓW\SRC\GUI\DIALOGS\LINEAR_DIALOG.UI
"C:\software\qt\5.3\msvc2013\bin\uic.exe" -o ".\GeneratedFiles\ui_linear_dialog.h" "J:\My Documents\Przetwarzanie obrazów\src\gui\dialogs\linear_dialog.ui"
^J:\MY DOCUMENTS\PRZETWARZANIE OBRAZÓW\SRC\GUI\MAINWINDOW.UI
"C:\software\qt\5.3\msvc2013\bin\uic.exe" -o ".\GeneratedFiles\ui_mainwindow.h" "J:\My Documents\Przetwarzanie obrazów\src\gui\mainwindow.ui"
^J:\MY DOCUMENTS\PRZETWARZANIE OBRAZÓW\SRC\GUI\DIALOGS\MAP_HORIZON_DIALOG.UI
"C:\software\qt\5.3\msvc2013\bin\uic.exe" -o ".\GeneratedFiles\ui_map_horizon_dialog.h" "J:\My Documents\Przetwarzanie obrazów\src\gui\dialogs\map_horizon_dialog.ui"
^J:\MY DOCUMENTS\PRZETWARZANIE OBRAZÓW\SRC\GUI\DIALOGS\MAP_NORMAL_DIALOG.UI
"C:\software\qt\5.3\msvc2013\bin\uic.exe" -o ".\GeneratedFiles\ui_map_normal_dialog.h" "J:\My Documents\Przetwarzanie obrazów\src\gui\dialogs\map_normal_dialog.ui"
^J:\MY DOCUMENTS\PRZETWARZANIE OBRAZÓW\SRC\GUI\DIALOGS\MASK_DIALOG.UI
"C:\software\qt\5.3\msvc2013\bin\uic.exe" -o ".\GeneratedFiles\ui_mask_dialog.h" "J:\My Documents\Przetwarzanie obrazów\src\gui\dialogs\mask_dialog.ui"
^J:\MY DOCUMENTS\PRZETWARZANIE OBRAZÓW\SRC\GUI\DIALOGS\MORPH_DIALOG.UI
"C:\software\qt\5.3\msvc2013\bin\uic.exe" -o ".\GeneratedFiles\ui_morph_dialog.h" "J:\My Documents\Przetwarzanie obrazów\src\gui\dialogs\morph_dialog.ui"
^J:\MY DOCUMENTS\PRZETWARZANIE OBRAZÓW\SRC\GUI\DIALOGS\NOISE_BILATERAL_DIALOG.UI
"C:\software\qt\5.3\msvc2013\bin\uic.exe" -o ".\GeneratedFiles\ui_noise_bilateral_dialog.h" "J:\My Documents\Przetwarzanie obrazów\src\gui\dialogs\noise_bilateral_dialog.ui"
^J:\MY DOCUMENTS\PRZETWARZANIE OBRAZÓW\SRC\GUI\DIALOGS\NOISE_MEDIAN_DIALOG.UI
"C:\software\qt\5.3\msvc2013\bin\uic.exe" -o ".\GeneratedFiles\ui_noise_median_dialog.h" "J:\My Documents\Przetwarzanie obrazów\src\gui\dialogs\noise_median_dialog.ui"
^J:\MY DOCUMENTS\PRZETWARZANIE OBRAZÓW\SRC\GUI\DIALOGS\SLIDER_DIALOG.UI
"C:\software\qt\5.3\msvc2013\bin\uic.exe" -o ".\GeneratedFiles\ui_slider_dialog.h" "J:\My Documents\Przetwarzanie obrazów\src\gui\dialogs\slider_dialog.ui"
^J:\MY DOCUMENTS\PRZETWARZANIE OBRAZÓW\SRC\GUI\TOOLSMENU.UI
"C:\software\qt\5.3\msvc2013\bin\uic.exe" -o ".\GeneratedFiles\ui_toolsmenu.h" "J:\My Documents\Przetwarzanie obrazów\src\gui\toolsmenu.ui"
^J:\MY DOCUMENTS\PRZETWARZANIE OBRAZÓW\RES\ICONS.QRC
"C:\software\qt\5.3\msvc2013\bin\rcc.exe" -name "icons" -no-compress "J:\My Documents\Przetwarzanie obrazów\res\icons.qrc" -o .\GeneratedFiles\qrc_icons.cpp
^J:\MY DOCUMENTS\OBRAZY\SRC\GUI\DIALOGS\BIN_NIBLACK_DIALOG.H
"C:\software\qt\5.3\msvc2013\bin\moc.exe"  "J:\My Documents\Obrazy\src\gui\dialogs\bin_niblack_dialog.h" -o "Debug\moc_bin_niblack_dialog.cpp"  -D_WINDOWS -DUNICODE -DWIN32 -DQT_WIDGETS_LIB -DQT_GUI_LIB -DQT_CORE_LIB -DQT_OPENGL_ES_2 -DQT_OPENGL_ES_2_ANGLE  "-I.\src" "-I.\src\core" "-I.\src\gui" "-IC:\software\qt\5.3\msvc2013\include" "-IC:\software\qt\5.3\msvc2013\include\QtWidgets" "-IC:\software\qt\5.3\msvc2013\include\QtGui" "-IC:\software\qt\5.3\msvc2013\include\QtANGLE" "-IC:\software\qt\5.3\msvc2013\include\QtCore" "-I.\debug" "-I." "-IC:\software\qt\5.3\msvc2013\mkspecs\win32-msvc2013" "-I.\GeneratedFiles" "-I\." "-IC:\software\qt\5.3\msvc2013\include\QtGui\5.3.1"
^J:\MY DOCUMENTS\OBRAZY\SRC\GUI\DIALOGS\CORNER_HARRIS_DIALOG.H
"C:\software\qt\5.3\msvc2013\bin\moc.exe"  "J:\My Documents\Obrazy\src\gui\dialogs\corner_harris_dialog.h" -o "Debug\moc_corner_harris_dialog.cpp"  -D_WINDOWS -DUNICODE -DWIN32 -DQT_WIDGETS_LIB -DQT_GUI_LIB -DQT_CORE_LIB -DQT_OPENGL_ES_2 -DQT_OPENGL_ES_2_ANGLE  "-I.\src" "-I.\src\core" "-I.\src\gui" "-IC:\software\qt\5.3\msvc2013\include" "-IC:\software\qt\5.3\msvc2013\include\QtWidgets" "-IC:\software\qt\5.3\msvc2013\include\QtGui" "-IC:\software\qt\5.3\msvc2013\include\QtANGLE" "-IC:\software\qt\5.3\msvc2013\include\QtCore" "-I.\debug" "-I." "-IC:\software\qt\5.3\msvc2013\mkspecs\win32-msvc2013" "-I.\GeneratedFiles" "-I\." "-IC:\software\qt\5.3\msvc2013\include\QtGui\5.3.1"
^J:\MY DOCUMENTS\OBRAZY\SRC\GUI\DIALOGS\CORRECTION_DIALOG.H
"C:\software\qt\5.3\msvc2013\bin\moc.exe"  "J:\My Documents\Obrazy\src\gui\dialogs\correction_dialog.h" -o "Debug\moc_correction_dialog.cpp"  -D_WINDOWS -DUNICODE -DWIN32 -DQT_WIDGETS_LIB -DQT_GUI_LIB -DQT_CORE_LIB -DQT_OPENGL_ES_2 -DQT_OPENGL_ES_2_ANGLE  "-I.\src" "-I.\src\core" "-I.\src\gui" "-IC:\software\qt\5.3\msvc2013\include" "-IC:\software\qt\5.3\msvc2013\include\QtWidgets" "-IC:\software\qt\5.3\msvc2013\include\QtGui" "-IC:\software\qt\5.3\msvc2013\include\QtANGLE" "-IC:\software\qt\5.3\msvc2013\include\QtCore" "-I.\debug" "-I." "-IC:\software\qt\5.3\msvc2013\mkspecs\win32-msvc2013" "-I.\GeneratedFiles" "-I\." "-IC:\software\qt\5.3\msvc2013\include\QtGui\5.3.1"
^J:\MY DOCUMENTS\OBRAZY\SRC\GUI\DIALOGS\EDGE_CANNY_DIALOG.H
"C:\software\qt\5.3\msvc2013\bin\moc.exe"  "J:\My Documents\Obrazy\src\gui\dialogs\edge_canny_dialog.h" -o "Debug\moc_edge_canny_dialog.cpp"  -D_WINDOWS -DUNICODE -DWIN32 -DQT_WIDGETS_LIB -DQT_GUI_LIB -DQT_CORE_LIB -DQT_OPENGL_ES_2 -DQT_OPENGL_ES_2_ANGLE  "-I.\src" "-I.\src\core" "-I.\src\gui" "-IC:\software\qt\5.3\msvc2013\include" "-IC:\software\qt\5.3\msvc2013\include\QtWidgets" "-IC:\software\qt\5.3\msvc2013\include\QtGui" "-IC:\software\qt\5.3\msvc2013\include\QtANGLE" "-IC:\software\qt\5.3\msvc2013\include\QtCore" "-I.\debug" "-I." "-IC:\software\qt\5.3\msvc2013\mkspecs\win32-msvc2013" "-I.\GeneratedFiles" "-I\." "-IC:\software\qt\5.3\msvc2013\include\QtGui\5.3.1"
^J:\MY DOCUMENTS\OBRAZY\SRC\GUI\DIALOGS\EDGE_ZERO_DIALOG.H
"C:\software\qt\5.3\msvc2013\bin\moc.exe"  "J:\My Documents\Obrazy\src\gui\dialogs\edge_zero_dialog.h" -o "Debug\moc_edge_zero_dialog.cpp"  -D_WINDOWS -DUNICODE -DWIN32 -DQT_WIDGETS_LIB -DQT_GUI_LIB -DQT_CORE_LIB -DQT_OPENGL_ES_2 -DQT_OPENGL_ES_2_ANGLE  "-I.\src" "-I.\src\core" "-I.\src\gui" "-IC:\software\qt\5.3\msvc2013\include" "-IC:\software\qt\5.3\msvc2013\include\QtWidgets" "-IC:\software\qt\5.3\msvc2013\include\QtGui" "-IC:\software\qt\5.3\msvc2013\include\QtANGLE" "-IC:\software\qt\5.3\msvc2013\include\QtCore" "-I.\debug" "-I." "-IC:\software\qt\5.3\msvc2013\mkspecs\win32-msvc2013" "-I.\GeneratedFiles" "-I\." "-IC:\software\qt\5.3\msvc2013\include\QtGui\5.3.1"
^J:\MY DOCUMENTS\OBRAZY\SRC\GUI\DIALOGS\GAUSSIAN_DIALOG.H
"C:\software\qt\5.3\msvc2013\bin\moc.exe"  "J:\My Documents\Obrazy\src\gui\dialogs\gaussian_dialog.h" -o "Debug\moc_gaussian_dialog.cpp"  -D_WINDOWS -DUNICODE -DWIN32 -DQT_WIDGETS_LIB -DQT_GUI_LIB -DQT_CORE_LIB -DQT_OPENGL_ES_2 -DQT_OPENGL_ES_2_ANGLE  "-I.\src" "-I.\src\core" "-I.\src\gui" "-IC:\software\qt\5.3\msvc2013\include" "-IC:\software\qt\5.3\msvc2013\include\QtWidgets" "-IC:\software\qt\5.3\msvc2013\include\QtGui" "-IC:\software\qt\5.3\msvc2013\include\QtANGLE" "-IC:\software\qt\5.3\msvc2013\include\QtCore" "-I.\debug" "-I." "-IC:\software\qt\5.3\msvc2013\mkspecs\win32-msvc2013" "-I.\GeneratedFiles" "-I\." "-IC:\software\qt\5.3\msvc2013\include\QtGui\5.3.1"
^J:\MY DOCUMENTS\OBRAZY\SRC\GUI\HISTOGRAMVIEWER.H
"C:\software\qt\5.3\msvc2013\bin\moc.exe"  "J:\My Documents\Obrazy\src\gui\histogramviewer.h" -o "Debug\moc_histogramviewer.cpp"  -D_WINDOWS -DUNICODE -DWIN32 -DQT_WIDGETS_LIB -DQT_GUI_LIB -DQT_CORE_LIB -DQT_OPENGL_ES_2 -DQT_OPENGL_ES_2_ANGLE  "-I.\src" "-I.\src\core" "-I.\src\gui" "-IC:\software\qt\5.3\msvc2013\include" "-IC:\software\qt\5.3\msvc2013\include\QtWidgets" "-IC:\software\qt\5.3\msvc2013\include\QtGui" "-IC:\software\qt\5.3\msvc2013\include\QtANGLE" "-IC:\software\qt\5.3\msvc2013\include\QtCore" "-I.\debug" "-I." "-IC:\software\qt\5.3\msvc2013\mkspecs\win32-msvc2013" "-I.\GeneratedFiles" "-I\." "-IC:\software\qt\5.3\msvc2013\include\QtGui\5.3.1"
^J:\MY DOCUMENTS\OBRAZY\SRC\GUI\DIALOGS\HOUGH_DIALOG.H
"C:\software\qt\5.3\msvc2013\bin\moc.exe"  "J:\My Documents\Obrazy\src\gui\dialogs\hough_dialog.h" -o "Debug\moc_hough_dialog.cpp"  -D_WINDOWS -DUNICODE -DWIN32 -DQT_WIDGETS_LIB -DQT_GUI_LIB -DQT_CORE_LIB -DQT_OPENGL_ES_2 -DQT_OPENGL_ES_2_ANGLE  "-I.\src" "-I.\src\core" "-I.\src\gui" "-IC:\software\qt\5.3\msvc2013\include" "-IC:\software\qt\5.3\msvc2013\include\QtWidgets" "-IC:\software\qt\5.3\msvc2013\include\QtGui" "-IC:\software\qt\5.3\msvc2013\include\QtANGLE" "-IC:\software\qt\5.3\msvc2013\include\QtCore" "-I.\debug" "-I." "-IC:\software\qt\5.3\msvc2013\mkspecs\win32-msvc2013" "-I.\GeneratedFiles" "-I\." "-IC:\software\qt\5.3\msvc2013\include\QtGui\5.3.1"
^J:\MY DOCUMENTS\OBRAZY\SRC\GUI\DIALOGS\HOUGH_LINES_DIALOG.H
"C:\software\qt\5.3\msvc2013\bin\moc.exe"  "J:\My Documents\Obrazy\src\gui\dialogs\hough_lines_dialog.h" -o "Debug\moc_hough_lines_dialog.cpp"  -D_WINDOWS -DUNICODE -DWIN32 -DQT_WIDGETS_LIB -DQT_GUI_LIB -DQT_CORE_LIB -DQT_OPENGL_ES_2 -DQT_OPENGL_ES_2_ANGLE  "-I.\src" "-I.\src\core" "-I.\src\gui" "-IC:\software\qt\5.3\msvc2013\include" "-IC:\software\qt\5.3\msvc2013\include\QtWidgets" "-IC:\software\qt\5.3\msvc2013\include\QtGui" "-IC:\software\qt\5.3\msvc2013\include\QtANGLE" "-IC:\software\qt\5.3\msvc2013\include\QtCore" "-I.\debug" "-I." "-IC:\software\qt\5.3\msvc2013\mkspecs\win32-msvc2013" "-I.\GeneratedFiles" "-I\." "-IC:\software\qt\5.3\msvc2013\include\QtGui\5.3.1"
^J:\MY DOCUMENTS\OBRAZY\SRC\GUI\IMAGEVIEWER.H
"C:\software\qt\5.3\msvc2013\bin\moc.exe"  "J:\My Documents\Obrazy\src\gui\imageviewer.h" -o "Debug\moc_imageviewer.cpp"  -D_WINDOWS -DUNICODE -DWIN32 -DQT_WIDGETS_LIB -DQT_GUI_LIB -DQT_CORE_LIB -DQT_OPENGL_ES_2 -DQT_OPENGL_ES_2_ANGLE  "-I.\src" "-I.\src\core" "-I.\src\gui" "-IC:\software\qt\5.3\msvc2013\include" "-IC:\software\qt\5.3\msvc2013\include\QtWidgets" "-IC:\software\qt\5.3\msvc2013\include\QtGui" "-IC:\software\qt\5.3\msvc2013\include\QtANGLE" "-IC:\software\qt\5.3\msvc2013\include\QtCore" "-I.\debug" "-I." "-IC:\software\qt\5.3\msvc2013\mkspecs\win32-msvc2013" "-I.\GeneratedFiles" "-I\." "-IC:\software\qt\5.3\msvc2013\include\QtGui\5.3.1"
^J:\MY DOCUMENTS\OBRAZY\SRC\GUI\DIALOGS\LINEAR_DIALOG.H
"C:\software\qt\5.3\msvc2013\bin\moc.exe"  "J:\My Documents\Obrazy\src\gui\dialogs\linear_dialog.h" -o "Debug\moc_linear_dialog.cpp"  -D_WINDOWS -DUNICODE -DWIN32 -DQT_WIDGETS_LIB -DQT_GUI_LIB -DQT_CORE_LIB -DQT_OPENGL_ES_2 -DQT_OPENGL_ES_2_ANGLE  "-I.\src" "-I.\src\core" "-I.\src\gui" "-IC:\software\qt\5.3\msvc2013\include" "-IC:\software\qt\5.3\msvc2013\include\QtWidgets" "-IC:\software\qt\5.3\msvc2013\include\QtGui" "-IC:\software\qt\5.3\msvc2013\include\QtANGLE" "-IC:\software\qt\5.3\msvc2013\include\QtCore" "-I.\debug" "-I." "-IC:\software\qt\5.3\msvc2013\mkspecs\win32-msvc2013" "-I.\GeneratedFiles" "-I\." "-IC:\software\qt\5.3\msvc2013\include\QtGui\5.3.1"
^J:\MY DOCUMENTS\OBRAZY\SRC\GUI\MAINWINDOW.H
"C:\software\qt\5.3\msvc2013\bin\moc.exe"  "J:\My Documents\Obrazy\src\gui\mainwindow.h" -o "Debug\moc_mainwindow.cpp"  -D_WINDOWS -DUNICODE -DWIN32 -DQT_WIDGETS_LIB -DQT_GUI_LIB -DQT_CORE_LIB -DQT_OPENGL_ES_2 -DQT_OPENGL_ES_2_ANGLE  "-I.\src" "-I.\src\core" "-I.\src\gui" "-IC:\software\qt\5.3\msvc2013\include" "-IC:\software\qt\5.3\msvc2013\include\QtWidgets" "-IC:\software\qt\5.3\msvc2013\include\QtGui" "-IC:\software\qt\5.3\msvc2013\include\QtANGLE" "-IC:\software\qt\5.3\msvc2013\include\QtCore" "-I.\debug" "-I." "-IC:\software\qt\5.3\msvc2013\mkspecs\win32-msvc2013" "-I.\GeneratedFiles" "-I\." "-IC:\software\qt\5.3\msvc2013\include\QtGui\5.3.1"
^J:\MY DOCUMENTS\OBRAZY\SRC\GUI\DIALOGS\MAP_HORIZON_DIALOG.H
"C:\software\qt\5.3\msvc2013\bin\moc.exe"  "J:\My Documents\Obrazy\src\gui\dialogs\map_horizon_dialog.h" -o "Debug\moc_map_horizon_dialog.cpp"  -D_WINDOWS -DUNICODE -DWIN32 -DQT_WIDGETS_LIB -DQT_GUI_LIB -DQT_CORE_LIB -DQT_OPENGL_ES_2 -DQT_OPENGL_ES_2_ANGLE  "-I.\src" "-I.\src\core" "-I.\src\gui" "-IC:\software\qt\5.3\msvc2013\include" "-IC:\software\qt\5.3\msvc2013\include\QtWidgets" "-IC:\software\qt\5.3\msvc2013\include\QtGui" "-IC:\software\qt\5.3\msvc2013\include\QtANGLE" "-IC:\software\qt\5.3\msvc2013\include\QtCore" "-I.\debug" "-I." "-IC:\software\qt\5.3\msvc2013\mkspecs\win32-msvc2013" "-I.\GeneratedFiles" "-I\." "-IC:\software\qt\5.3\msvc2013\include\QtGui\5.3.1"
^J:\MY DOCUMENTS\OBRAZY\SRC\GUI\DIALOGS\MAP_NORMAL_DIALOG.H
"C:\software\qt\5.3\msvc2013\bin\moc.exe"  "J:\My Documents\Obrazy\src\gui\dialogs\map_normal_dialog.h" -o "Debug\moc_map_normal_dialog.cpp"  -D_WINDOWS -DUNICODE -DWIN32 -DQT_WIDGETS_LIB -DQT_GUI_LIB -DQT_CORE_LIB -DQT_OPENGL_ES_2 -DQT_OPENGL_ES_2_ANGLE  "-I.\src" "-I.\src\core" "-I.\src\gui" "-IC:\software\qt\5.3\msvc2013\include" "-IC:\software\qt\5.3\msvc2013\include\QtWidgets" "-IC:\software\qt\5.3\msvc2013\include\QtGui" "-IC:\software\qt\5.3\msvc2013\include\QtANGLE" "-IC:\software\qt\5.3\msvc2013\include\QtCore" "-I.\debug" "-I." "-IC:\software\qt\5.3\msvc2013\mkspecs\win32-msvc2013" "-I.\GeneratedFiles" "-I\." "-IC:\software\qt\5.3\msvc2013\include\QtGui\5.3.1"
^J:\MY DOCUMENTS\OBRAZY\SRC\GUI\DIALOGS\MASK_DIALOG.H
"C:\software\qt\5.3\msvc2013\bin\moc.exe"  "J:\My Documents\Obrazy\src\gui\dialogs\mask_dialog.h" -o "Debug\moc_mask_dialog.cpp"  -D_WINDOWS -DUNICODE -DWIN32 -DQT_WIDGETS_LIB -DQT_GUI_LIB -DQT_CORE_LIB -DQT_OPENGL_ES_2 -DQT_OPENGL_ES_2_ANGLE  "-I.\src" "-I.\src\core" "-I.\src\gui" "-IC:\software\qt\5.3\msvc2013\include" "-IC:\software\qt\5.3\msvc2013\include\QtWidgets" "-IC:\software\qt\5.3\msvc2013\include\QtGui" "-IC:\software\qt\5.3\msvc2013\include\QtANGLE" "-IC:\software\qt\5.3\msvc2013\include\QtCore" "-I.\debug" "-I." "-IC:\software\qt\5.3\msvc2013\mkspecs\win32-msvc2013" "-I.\GeneratedFiles" "-I\." "-IC:\software\qt\5.3\msvc2013\include\QtGui\5.3.1"
^J:\MY DOCUMENTS\OBRAZY\SRC\GUI\DIALOGS\MORPH_DIALOG.H
"C:\software\qt\5.3\msvc2013\bin\moc.exe"  "J:\My Documents\Obrazy\src\gui\dialogs\morph_dialog.h" -o "Debug\moc_morph_dialog.cpp"  -D_WINDOWS -DUNICODE -DWIN32 -DQT_WIDGETS_LIB -DQT_GUI_LIB -DQT_CORE_LIB -DQT_OPENGL_ES_2 -DQT_OPENGL_ES_2_ANGLE  "-I.\src" "-I.\src\core" "-I.\src\gui" "-IC:\software\qt\5.3\msvc2013\include" "-IC:\software\qt\5.3\msvc2013\include\QtWidgets" "-IC:\software\qt\5.3\msvc2013\include\QtGui" "-IC:\software\qt\5.3\msvc2013\include\QtANGLE" "-IC:\software\qt\5.3\msvc2013\include\QtCore" "-I.\debug" "-I." "-IC:\software\qt\5.3\msvc2013\mkspecs\win32-msvc2013" "-I.\GeneratedFiles" "-I\." "-IC:\software\qt\5.3\msvc2013\include\QtGui\5.3.1"
^J:\MY DOCUMENTS\OBRAZY\SRC\GUI\DIALOGS\NOISE_BILATERAL_DIALOG.H
"C:\software\qt\5.3\msvc2013\bin\moc.exe"  "J:\My Documents\Obrazy\src\gui\dialogs\noise_bilateral_dialog.h" -o "Debug\moc_noise_bilateral_dialog.cpp"  -D_WINDOWS -DUNICODE -DWIN32 -DQT_WIDGETS_LIB -DQT_GUI_LIB -DQT_CORE_LIB -DQT_OPENGL_ES_2 -DQT_OPENGL_ES_2_ANGLE  "-I.\src" "-I.\src\core" "-I.\src\gui" "-IC:\software\qt\5.3\msvc2013\include" "-IC:\software\qt\5.3\msvc2013\include\QtWidgets" "-IC:\software\qt\5.3\msvc2013\include\QtGui" "-IC:\software\qt\5.3\msvc2013\include\QtANGLE" "-IC:\software\qt\5.3\msvc2013\include\QtCore" "-I.\debug" "-I." "-IC:\software\qt\5.3\msvc2013\mkspecs\win32-msvc2013" "-I.\GeneratedFiles" "-I\." "-IC:\software\qt\5.3\msvc2013\include\QtGui\5.3.1"
^J:\MY DOCUMENTS\OBRAZY\SRC\GUI\DIALOGS\NOISE_MEDIAN_DIALOG.H
"C:\software\qt\5.3\msvc2013\bin\moc.exe"  "J:\My Documents\Obrazy\src\gui\dialogs\noise_median_dialog.h" -o "Debug\moc_noise_median_dialog.cpp"  -D_WINDOWS -DUNICODE -DWIN32 -DQT_WIDGETS_LIB -DQT_GUI_LIB -DQT_CORE_LIB -DQT_OPENGL_ES_2 -DQT_OPENGL_ES_2_ANGLE  "-I.\src" "-I.\src\core" "-I.\src\gui" "-IC:\software\qt\5.3\msvc2013\include" "-IC:\software\qt\5.3\msvc2013\include\QtWidgets" "-IC:\software\qt\5.3\msvc2013\include\QtGui" "-IC:\software\qt\5.3\msvc2013\include\QtANGLE" "-IC:\software\qt\5.3\msvc2013\include\QtCore" "-I.\debug" "-I." "-IC:\software\qt\5.3\msvc2013\mkspecs\win32-msvc2013" "-I.\GeneratedFiles" "-I\." "-IC:\software\qt\5.3\msvc2013\include\QtGui\5.3.1"
^J:\MY DOCUMENTS\OBRAZY\SRC\GUI\DIALOGS\SLIDER_DIALOG.H
"C:\software\qt\5.3\msvc2013\bin\moc.exe"  "J:\My Documents\Obrazy\src\gui\dialogs\slider_dialog.h" -o "Debug\moc_slider_dialog.cpp"  -D_WINDOWS -DUNICODE -DWIN32 -DQT_WIDGETS_LIB -DQT_GUI_LIB -DQT_CORE_LIB -DQT_OPENGL_ES_2 -DQT_OPENGL_ES_2_ANGLE  "-I.\src" "-I.\src\core" "-I.\src\gui" "-IC:\software\qt\5.3\msvc2013\include" "-IC:\software\qt\5.3\msvc2013\include\QtWidgets" "-IC:\software\qt\5.3\msvc2013\include\QtGui" "-IC:\software\qt\5.3\msvc2013\include\QtANGLE" "-IC:\software\qt\5.3\msvc2013\include\QtCore" "-I.\debug" "-I." "-IC:\software\qt\5.3\msvc2013\mkspecs\win32-msvc2013" "-I.\GeneratedFiles" "-I\." "-IC:\software\qt\5.3\msvc2013\include\QtGui\5.3.1"
^J:\MY DOCUMENTS\OBRAZY\SRC\CORE\TOOLS.H
"C:\software\qt\5.3\msvc2013\bin\moc.exe"  "J:\My Documents\Obrazy\src\core\tools.h" -o "Debug\moc_tools.cpp"  -D_WINDOWS -DUNICODE -DWIN32 -DQT_WIDGETS_LIB -DQT_GUI_LIB -DQT_CORE_LIB -DQT_OPENGL_ES_2 -DQT_OPENGL_ES_2_ANGLE  "-I.\src" "-I.\src\core" "-I.\src\gui" "-IC:\software\qt\5.3\msvc2013\include" "-IC:\software\qt\5.3\msvc2013\include\QtWidgets" "-IC:\software\qt\5.3\msvc2013\include\QtGui" "-IC:\software\qt\5.3\msvc2013\include\QtANGLE" "-IC:\software\qt\5.3\msvc2013\include\QtCore" "-I.\debug" "-I." "-IC:\software\qt\5.3\msvc2013\mkspecs\win32-msvc2013" "-I.\GeneratedFiles" "-I\." "-IC:\software\qt\5.3\msvc2013\include\QtGui\5.3.1"
^J:\MY DOCUMENTS\OBRAZY\SRC\GUI\TOOLSMENU.H
"C:\software\qt\5.3\msvc2013\bin\moc.exe"  "J:\My Documents\Obrazy\src\gui\toolsmenu.h" -o "Debug\moc_toolsmenu.cpp"  -D_WINDOWS -DUNICODE -DWIN32 -DQT_WIDGETS_LIB -DQT_GUI_LIB -DQT_CORE_LIB -DQT_OPENGL_ES_2 -DQT_OPENGL_ES_2_ANGLE  "-I.\src" "-I.\src\core" "-I.\src\gui" "-IC:\software\qt\5.3\msvc2013\include" "-IC:\software\qt\5.3\msvc2013\include\QtWidgets" "-IC:\software\qt\5.3\msvc2013\include\QtGui" "-IC:\software\qt\5.3\msvc2013\include\QtANGLE" "-IC:\software\qt\5.3\msvc2013\include\QtCore" "-I.\debug" "-I." "-IC:\software\qt\5.3\msvc2013\mkspecs\win32-msvc2013" "-I.\GeneratedFiles" "-I\." "-IC:\software\qt\5.3\msvc2013\include\QtGui\5.3.1"
^J:\MY DOCUMENTS\OBRAZY\SRC\CORE\TRANSFORMATIONS\TRANSFORMATION.H
"C:\software\qt\5.3\msvc2013\bin\moc.exe"  "J:\My Documents\Obrazy\src\core\transformations\transformation.h" -o "Debug\moc_transformation.cpp"  -D_WINDOWS -DUNICODE -DWIN32 -DQT_WIDGETS_LIB -DQT_GUI_LIB -DQT_CORE_LIB -DQT_OPENGL_ES_2 -DQT_OPENGL_ES_2_ANGLE  "-I.\src" "-I.\src\core" "-I.\src\gui" "-IC:\software\qt\5.3\msvc2013\include" "-IC:\software\qt\5.3\msvc2013\include\QtWidgets" "-IC:\software\qt\5.3\msvc2013\include\QtGui" "-IC:\software\qt\5.3\msvc2013\include\QtANGLE" "-IC:\software\qt\5.3\msvc2013\include\QtCore" "-I.\debug" "-I." "-IC:\software\qt\5.3\msvc2013\mkspecs\win32-msvc2013" "-I.\GeneratedFiles" "-I\." "-IC:\software\qt\5.3\msvc2013\include\QtGui\5.3.1"
^J:\MY DOCUMENTS\OBRAZY\SRC\GUI\DIALOGS\BIN_NIBLACK_DIALOG.UI
"C:\software\qt\5.3\msvc2013\bin\uic.exe" -o ".\GeneratedFiles\ui_bin_niblack_dialog.h" "J:\My Documents\Obrazy\src\gui\dialogs\bin_niblack_dialog.ui"
^J:\MY DOCUMENTS\OBRAZY\SRC\GUI\DIALOGS\CORNER_HARRIS_DIALOG.UI
"C:\software\qt\5.3\msvc2013\bin\uic.exe" -o ".\GeneratedFiles\ui_corner_harris_dialog.h" "J:\My Documents\Obrazy\src\gui\dialogs\corner_harris_dialog.ui"
^J:\MY DOCUMENTS\OBRAZY\SRC\GUI\DIALOGS\CORRECTION_DIALOG.UI
"C:\software\qt\5.3\msvc2013\bin\uic.exe" -o ".\GeneratedFiles\ui_correction_dialog.h" "J:\My Documents\Obrazy\src\gui\dialogs\correction_dialog.ui"
^J:\MY DOCUMENTS\OBRAZY\SRC\GUI\DIALOGS\EDGE_CANNY_DIALOG.UI
"C:\software\qt\5.3\msvc2013\bin\uic.exe" -o ".\GeneratedFiles\ui_edge_canny_dialog.h" "J:\My Documents\Obrazy\src\gui\dialogs\edge_canny_dialog.ui"
^J:\MY DOCUMENTS\OBRAZY\SRC\GUI\DIALOGS\EDGE_ZERO_DIALOG.UI
"C:\software\qt\5.3\msvc2013\bin\uic.exe" -o ".\GeneratedFiles\ui_edge_zero_dialog.h" "J:\My Documents\Obrazy\src\gui\dialogs\edge_zero_dialog.ui"
^J:\MY DOCUMENTS\OBRAZY\SRC\GUI\DIALOGS\GAUSSIAN_DIALOG.UI
"C:\software\qt\5.3\msvc2013\bin\uic.exe" -o ".\GeneratedFiles\ui_gaussian_dialog.h" "J:\My Documents\Obrazy\src\gui\dialogs\gaussian_dialog.ui"
^J:\MY DOCUMENTS\OBRAZY\SRC\GUI\HISTOGRAMVIEWER.UI
"C:\software\qt\5.3\msvc2013\bin\uic.exe" -o ".\GeneratedFiles\ui_histogramviewer.h" "J:\My Documents\Obrazy\src\gui\histogramviewer.ui"
^J:\MY DOCUMENTS\OBRAZY\SRC\GUI\DIALOGS\HOUGH_DIALOG.UI
"C:\software\qt\5.3\msvc2013\bin\uic.exe" -o ".\GeneratedFiles\ui_hough_dialog.h" "J:\My Documents\Obrazy\src\gui\dialogs\hough_dialog.ui"
^J:\MY DOCUMENTS\OBRAZY\SRC\GUI\DIALOGS\HOUGH_LINES_DIALOG.UI
"C:\software\qt\5.3\msvc2013\bin\uic.exe" -o ".\GeneratedFiles\ui_hough_lines_dialog.h" "J:\My Documents\Obrazy\src\gui\dialogs\hough_lines_dialog.ui"
^J:\MY DOCUMENTS\OBRAZY\SRC\GUI\IMAGEVIEWER.UI
"C:\software\qt\5.3\msvc2013\bin\uic.exe" -o ".\GeneratedFiles\ui_imageviewer.h" "J:\My Documents\Obrazy\src\gui\imageviewer.ui"
^J:\MY DOCUMENTS\OBRAZY\SRC\GUI\DIALOGS\LINEAR_DIALOG.UI
"C:\software\qt\5.3\msvc2013\bin\uic.exe" -o ".\GeneratedFiles\ui_linear_dialog.h" "J:\My Documents\Obrazy\src\gui\dialogs\linear_dialog.ui"
^J:\MY DOCUMENTS\OBRAZY\SRC\GUI\MAINWINDOW.UI
"C:\software\qt\5.3\msvc2013\bin\uic.exe" -o ".\GeneratedFiles\ui_mainwindow.h" "J:\My Documents\Obrazy\src\gui\mainwindow.ui"
^J:\MY DOCUMENTS\OBRAZY\SRC\GUI\DIALOGS\MAP_HORIZON_DIALOG.UI
"C:\software\qt\5.3\msvc2013\bin\uic.exe" -o ".\GeneratedFiles\ui_map_horizon_dialog.h" "J:\My Documents\Obrazy\src\gui\dialogs\map_horizon_dialog.ui"
^J:\MY DOCUMENTS\OBRAZY\SRC\GUI\DIALOGS\MAP_NORMAL_DIALOG.UI
"C:\software\qt\5.3\msvc2013\bin\uic.exe" -o ".\GeneratedFiles\ui_map_normal_dialog.h" "J:\My Documents\Obrazy\src\gui\dialogs\map_normal_dialog.ui"
^J:\MY DOCUMENTS\OBRAZY\SRC\GUI\DIALOGS\MASK_DIALOG.UI
"C:\software\qt\5.3\msvc2013\bin\uic.exe" -o ".\GeneratedFiles\ui_mask_dialog.h" "J:\My Documents\Obrazy\src\gui\dialogs\mask_dialog.ui"
^J:\MY DOCUMENTS\OBRAZY\SRC\GUI\DIALOGS\MORPH_DIALOG.UI
"C:\software\qt\5.3\msvc2013\bin\uic.exe" -o ".\GeneratedFiles\ui_morph_dialog.h" "J:\My Documents\Obrazy\src\gui\dialogs\morph_dialog.ui"
^J:\MY DOCUMENTS\OBRAZY\SRC\GUI\DIALOGS\NOISE_BILATERAL_DIALOG.UI
"C:\software\qt\5.3\msvc2013\bin\uic.exe" -o ".\GeneratedFiles\ui_noise_bilateral_dialog.h" "J:\My Documents\Obrazy\src\gui\dialogs\noise_bilateral_dialog.ui"
^J:\MY DOCUMENTS\OBRAZY\SRC\GUI\DIALOGS\NOISE_MEDIAN_DIALOG.UI
"C:\software\qt\5.3\msvc2013\bin\uic.exe" -o ".\GeneratedFiles\ui_noise_median_dialog.h" "J:\My Documents\Obrazy\src\gui\dialogs\noise_median_dialog.ui"
^J:\MY DOCUMENTS\OBRAZY\SRC\GUI\DIALOGS\SLIDER_DIALOG.UI
"C:\software\qt\5.3\msvc2013\bin\uic.exe" -o ".\GeneratedFiles\ui_slider_dialog.h" "J:\My Documents\Obrazy\src\gui\dialogs\slider_dialog.ui"
^J:\MY DOCUMENTS\OBRAZY\SRC\GUI\TOOLSMENU.UI
"C:\software\qt\5.3\msvc2013\bin\uic.exe" -o ".\GeneratedFiles\ui_toolsmenu.h" "J:\My Documents\Obrazy\src\gui\toolsmenu.ui"
^J:\MY DOCUMENTS\OBRAZY\RES\ICONS.QRC
"C:\software\qt\5.3\msvc2013\bin\rcc.exe" -name "icons" -no-compress "J:\My Documents\Obrazy\res\icons.qrc" -o .\GeneratedFiles\qrc_icons.cpp
